…
From key variables such as `reordered`, `user_id`, `order_dow`, `order_hour_of_day`, `product_name`, `aisle` and `department`, some interesting findings are as below:

-   Fresh fruits and vegetables are reordered frequently.

``` r
instacart %>% 
  group_by(aisle) %>% 
  filter(reordered == 1) %>%
  count() %>% 
  arrange(desc(n))
```

    ## # A tibble: 134 x 2
    ## # Groups:   aisle [134]
    ##    aisle                              n
    ##    <chr>                          <int>
    ##  1 fresh fruits                  110782
    ##  2 fresh vegetables               91368
    ##  3 packaged vegetables fruits     51523
    ##  4 yogurt                         37939
    ##  5 water seltzer sparkling water  27011
    ##  6 milk                           25864
    ##  7 packaged cheese                24897
    ##  8 chips pretzels                 18649
    ##  9 soy lactosefree                18046
    ## 10 bread                          16073
    ## # ... with 124 more rows

-   Orders tend to be made from 10 am to 5 pm.

``` r
instacart %>% 
  count(order_hour_of_day) %>% 
  arrange(desc(n))
```

    ## # A tibble: 24 x 2
    ##    order_hour_of_day      n
    ##                <int>  <int>
    ##  1                14 119370
    ##  2                15 116198
    ##  3                13 114762
    ##  4                11 114119
    ##  5                12 111752
    ##  6                10 110479
    ##  7                16 110237
    ##  8                17  96944
    ##  9                 9  93856
    ## 10                18  76522
    ## # ... with 14 more rows
…
